data_management
…
Reading in glass data, changing type of glass variable (previously numeric) into descriptions, and selecting rows were Fe < .2 and type of glass is tableware or headlamps.

glass<-read_delim(file = "https://www4.stat.ncsu.edu/~online/datasets/glass.data" , delim = ",", col_names = c("ID", "RI", "Na", "Mg", "Al", "Si", "K", "Ca", "Ba", "Fe", "Type_of_Glass"))

Rows: 214 Columns: 11
-- Column specification --------------------------------------------------------
Delimiter: ","
dbl (11): ID, RI, Na, Mg, Al, Si, K, Ca, Ba, Fe, Type_of_Glass

i Use `spec()` to retrieve the full column specification for this data.
i Specify the column types or set `show_col_types = FALSE` to quiet this message.

glass

# A tibble: 214 x 11
      ID    RI    Na    Mg    Al    Si     K    Ca    Ba    Fe Type_of_Glass
   <dbl> <dbl> <dbl> <dbl> <dbl> <dbl> <dbl> <dbl> <dbl> <dbl>         <dbl>
 1     1  1.52  13.6  4.49  1.1   71.8  0.06  8.75     0  0                1
 2     2  1.52  13.9  3.6   1.36  72.7  0.48  7.83     0  0                1
 3     3  1.52  13.5  3.55  1.54  73.0  0.39  7.78     0  0                1
 4     4  1.52  13.2  3.69  1.29  72.6  0.57  8.22     0  0                1
 5     5  1.52  13.3  3.62  1.24  73.1  0.55  8.07     0  0                1
 6     6  1.52  12.8  3.61  1.62  73.0  0.64  8.07     0  0.26             1
 7     7  1.52  13.3  3.6   1.14  73.1  0.58  8.17     0  0                1
 8     8  1.52  13.2  3.61  1.05  73.2  0.57  8.24     0  0                1
 9     9  1.52  14.0  3.58  1.37  72.1  0.56  8.3      0  0                1
10    10  1.52  13    3.6   1.36  73.0  0.57  8.4      0  0.11             1
# i 204 more rows

glass |>
  mutate(Type_of_Glass = ifelse(Type_of_Glass %in% 1, "building_windows_float_processed",
                                 ifelse(Type_of_Glass %in% 2, "building_windows_non_float_processed",
                                        ifelse(Type_of_Glass %in% 3, "vehicle_windows_float_processed",
                                               if_else(Type_of_Glass %in% 4, " vehicle_windows_non_float_processed",
                                                      if_else(Type_of_Glass %in% 5, "containers",
                                                             if_else(Type_of_Glass %in% 6, "tableware",
                                                                    if_else(Type_of_Glass %in% 7, "headlamps", "N/A")))))))
       ) |>
  filter((Fe < .2) & (Type_of_Glass == "tableware" | Type_of_Glass == "headlamps"))

# A tibble: 38 x 11
      ID    RI    Na    Mg    Al    Si     K    Ca    Ba    Fe Type_of_Glass
   <dbl> <dbl> <dbl> <dbl> <dbl> <dbl> <dbl> <dbl> <dbl> <dbl> <chr>        
 1   177  1.52  14    2.39  1.56  72.4  0     9.57  0        0 tableware    
 2   178  1.52  13.8  2.41  1.19  72.8  0     9.77  0        0 tableware    
 3   179  1.52  14.5  2.24  1.62  72.4  0     9.26  0        0 tableware    
 4   180  1.52  14.1  2.19  1.66  72.7  0     9.32  0        0 tableware    
 5   181  1.51  14.4  1.74  1.54  74.6  0     7.59  0        0 tableware    
 6   182  1.52  15.0  0.78  1.74  72.5  0     9.95  0        0 tableware    
 7   183  1.52  14.2  0     2.09  72.7  0    10.9   0        0 tableware    
 8   184  1.52  14.6  0     0.56  73.5  0    11.2   0        0 tableware    
 9   185  1.51  17.4  0     0.34  75.4  0     6.65  0        0 tableware    
10   186  1.51  13.7  3.2   1.81  72.8  1.76  5.43  1.19     0 headlamps    
# i 28 more rows
…
yeast

# A tibble: 1,484 x 10
   seq_name     mcg   gvh   alm   mit   erl   pox   vac   nuc class
   <chr>      <dbl> <dbl> <dbl> <dbl> <dbl> <dbl> <dbl> <dbl> <chr>
 1 ADT1_YEAST  0.58  0.61  0.47  0.13   0.5   0    0.48  0.22 MIT  
 2 ADT2_YEAST  0.43  0.67  0.48  0.27   0.5   0    0.53  0.22 MIT  
 3 ADT3_YEAST  0.64  0.62  0.49  0.15   0.5   0    0.53  0.22 MIT  
 4 AAR2_YEAST  0.58  0.44  0.57  0.13   0.5   0    0.54  0.22 NUC  
 5 AATM_YEAST  0.42  0.44  0.48  0.54   0.5   0    0.48  0.22 MIT  
 6 AATC_YEAST  0.51  0.4   0.56  0.17   0.5   0.5  0.49  0.22 CYT  
 7 ABC1_YEAST  0.5   0.54  0.48  0.65   0.5   0    0.53  0.22 MIT  
 8 BAF1_YEAST  0.48  0.45  0.59  0.2    0.5   0    0.58  0.34 NUC  
 9 ABF2_YEAST  0.55  0.5   0.66  0.36   0.5   0    0.49  0.22 MIT  
10 ABP1_YEAST  0.4   0.39  0.6   0.15   0.5   0    0.58  0.3  CYT  
# i 1,474 more rows

yeast |>
  subset(select = -c(seq_name, nuc)) |>
  mutate(across(where(is.numeric), list(mean=mean, median=median), .names = "{.col}_{.fn}")) 

# A tibble: 1,484 x 22
     mcg   gvh   alm   mit   erl   pox   vac class mcg_mean mcg_median gvh_mean
   <dbl> <dbl> <dbl> <dbl> <dbl> <dbl> <dbl> <chr>    <dbl>      <dbl>    <dbl>
 1  0.58  0.61  0.47  0.13   0.5   0    0.48 MIT      0.500       0.49    0.500
 2  0.43  0.67  0.48  0.27   0.5   0    0.53 MIT      0.500       0.49    0.500
 3  0.64  0.62  0.49  0.15   0.5   0    0.53 MIT      0.500       0.49    0.500
 4  0.58  0.44  0.57  0.13   0.5   0    0.54 NUC      0.500       0.49    0.500
 5  0.42  0.44  0.48  0.54   0.5   0    0.48 MIT      0.500       0.49    0.500
 6  0.51  0.4   0.56  0.17   0.5   0.5  0.49 CYT      0.500       0.49    0.500
 7  0.5   0.54  0.48  0.65   0.5   0    0.53 MIT      0.500       0.49    0.500
 8  0.48  0.45  0.59  0.2    0.5   0    0.58 NUC      0.500       0.49    0.500
 9  0.55  0.5   0.66  0.36   0.5   0    0.49 MIT      0.500       0.49    0.500
10  0.4   0.39  0.6   0.15   0.5   0    0.58 CYT      0.500       0.49    0.500
# i 1,474 more rows
# i 11 more variables: gvh_median <dbl>, alm_mean <dbl>, alm_median <dbl>,
#   mit_mean <dbl>, mit_median <dbl>, erl_mean <dbl>, erl_median <dbl>,
#   pox_mean <dbl>, pox_median <dbl>, vac_mean <dbl>, vac_median <dbl>

Task 3

Read in White wine data, rename columns, and create variable denoting data comes from white wine.

white_wine <- read_excel("C:/Users/beard/Downloads/white-wine.xlsx")

white_wine_columns<-read_excel("C:/Users/beard/Downloads/white-wine.xlsx", sheet = 2)

colnames(white_wine)<-white_wine_columns$Variables

white_wine

# A tibble: 4,898 x 12
   fixed_acidity volatile_acidity citric_acid residual_sugar chlorides
           <dbl>            <dbl>       <dbl>          <dbl>     <dbl>
 1             7             0.27        0.36           20.7     0.045
 2            63             0.3         0.34            1.6     0.049
 3            81             0.28        0.4             6.9     0.05 
 4            72             0.23        0.32            8.5     0.058
 5            72             0.23        0.32            8.5     0.058
 6            81             0.28        0.4             6.9     0.05 
 7            62             0.32        0.16            7       0.045
 8             7             0.27        0.36           20.7     0.045
 9            63             0.3         0.34            1.6     0.049
10            81             0.22        0.43            1.5     0.044
# i 4,888 more rows
# i 7 more variables: free_sulfur_dioxide <dbl>, total_sulfur_dioxide <dbl>,
#   density <dbl>, pH <dbl>, sulphates <dbl>, alcohol <dbl>, quality <dbl>

white_wine_type<-add_column(white_wine, wine_type="white")

white_wine_type

# A tibble: 4,898 x 13
   fixed_acidity volatile_acidity citric_acid residual_sugar chlorides
           <dbl>            <dbl>       <dbl>          <dbl>     <dbl>
 1             7             0.27        0.36           20.7     0.045
 2            63             0.3         0.34            1.6     0.049
 3            81             0.28        0.4             6.9     0.05 
 4            72             0.23        0.32            8.5     0.058
 5            72             0.23        0.32            8.5     0.058
 6            81             0.28        0.4             6.9     0.05 
 7            62             0.32        0.16            7       0.045
 8             7             0.27        0.36           20.7     0.045
 9            63             0.3         0.34            1.6     0.049
10            81             0.22        0.43            1.5     0.044
# i 4,888 more rows
# i 8 more variables: free_sulfur_dioxide <dbl>, total_sulfur_dioxide <dbl>,
#   density <dbl>, pH <dbl>, sulphates <dbl>, alcohol <dbl>, quality <dbl>,
#   wine_type <chr>
…
Rows: 1599 Columns: 12
-- Column specification --------------------------------------------------------
Delimiter: ";"
dbl (12): fixed acidity, volatile acidity, citric acid, residual sugar, chlo...

i Use `spec()` to retrieve the full column specification for this data.
i Specify the column types or set `show_col_types = FALSE` to quiet this message.

colnames(red_wine)<-white_wine_columns$Variables

red_wine

# A tibble: 1,599 x 12
   fixed_acidity volatile_acidity citric_acid residual_sugar chlorides
           <dbl>            <dbl>       <dbl>          <dbl>     <dbl>
 1           7.4             0.7         0               1.9     0.076
 2           7.8             0.88        0               2.6     0.098
 3           7.8             0.76        0.04            2.3     0.092
 4          11.2             0.28        0.56            1.9     0.075
 5           7.4             0.7         0               1.9     0.076
 6           7.4             0.66        0               1.8     0.075
 7           7.9             0.6         0.06            1.6     0.069
 8           7.3             0.65        0               1.2     0.065
 9           7.8             0.58        0.02            2       0.073
10           7.5             0.5         0.36            6.1     0.071
# i 1,589 more rows
# i 7 more variables: free_sulfur_dioxide <dbl>, total_sulfur_dioxide <dbl>,
#   density <dbl>, pH <dbl>, sulphates <dbl>, alcohol <dbl>, quality <dbl>

red_wine_type<-add_column(red_wine, wine_type="red")

red_wine_type

# A tibble: 1,599 x 13
   fixed_acidity volatile_acidity citric_acid residual_sugar chlorides
           <dbl>            <dbl>       <dbl>          <dbl>     <dbl>
 1           7.4             0.7         0               1.9     0.076
 2           7.8             0.88        0               2.6     0.098
 3           7.8             0.76        0.04            2.3     0.092
 4          11.2             0.28        0.56            1.9     0.075
 5           7.4             0.7         0               1.9     0.076
 6           7.4             0.66        0               1.8     0.075
 7           7.9             0.6         0.06            1.6     0.069
 8           7.3             0.65        0               1.2     0.065
 9           7.8             0.58        0.02            2       0.073
10           7.5             0.5         0.36            6.1     0.071
# i 1,589 more rows
# i 8 more variables: free_sulfur_dioxide <dbl>, total_sulfur_dioxide <dbl>,
#   density <dbl>, pH <dbl>, sulphates <dbl>, alcohol <dbl>, quality <dbl>,
#   wine_type <chr>

Combine white wine and red wine data. Then, only select rows with quality > 6.5 and alcohol < 132, sort by descending quality, selecting only citric acid, alcohol, wine, and quality columns, and create mean and standard deviation columns for alcohol grouped by quality.

wines<- dplyr::bind_rows(white_wine_type,red_wine_type)

wines

# A tibble: 6,497 x 13
   fixed_acidity volatile_acidity citric_acid residual_sugar chlorides
           <dbl>            <dbl>       <dbl>          <dbl>     <dbl>
 1             7             0.27        0.36           20.7     0.045
 2            63             0.3         0.34            1.6     0.049
 3            81             0.28        0.4             6.9     0.05 
 4            72             0.23        0.32            8.5     0.058
 5            72             0.23        0.32            8.5     0.058
 6            81             0.28        0.4             6.9     0.05 
 7            62             0.32        0.16            7       0.045
 8             7             0.27        0.36           20.7     0.045
 9            63             0.3         0.34            1.6     0.049
10            81             0.22        0.43            1.5     0.044
# i 6,487 more rows
# i 8 more variables: free_sulfur_dioxide <dbl>, total_sulfur_dioxide <dbl>,
#   density <dbl>, pH <dbl>, sulphates <dbl>, alcohol <dbl>, quality <dbl>,
#   wine_type <chr>

wines |>
  filter((quality > 6.5) & (alcohol < 132)) |>
  arrange(desc(quality)) |>
  subset(select = c(citric_acid, alcohol, wine_type, quality)) |>
  group_by(quality) |>
  mutate(across(alcohol, list(mean=mean, sd=sd), .names = "{.col}_{.fn}"))

# A tibble: 1,206 x 6
# Groups:   quality [3]
   citric_acid alcohol wine_type quality alcohol_mean alcohol_sd
         <dbl>   <dbl> <chr>       <dbl>        <dbl>      <dbl>
 1        0.45     104 white           9        122.        10.1
 2        0.29     124 white           9        122.        10.1
 3        0.36     125 white           9        122.        10.1
 4        0.34     127 white           9        122.        10.1
 5        0.49     129 white           9        122.        10.1
 6        0.48     128 white           8         94.1       42.8
 7        0.48     128 white           8         94.1       42.8
 8        0.42     105 white           8         94.1       42.8
 9        0.31     107 white           8         94.1       42.8
10        0.31     107 white           8         94.1       42.8
# i 1,196 more rows
…
Retrieving data for managers, their playerID, Games, Wins, and Losses. Then, grouping by player ID creating columns to sum their games, wins, and losses and create column of win/loss percentage and sorting by highest to lowest of said percentage.

tbl(con, "Managers") |>
  select(playerID, G, W, L) |>
  group_by(playerID) |>
  summarize(G_managed = sum(G, na.rm = TRUE),
  Total_W = sum(W, na.rm = TRUE),
  Total_L = sum(L, na.rm = TRUE)) |>
  collect() |>
  mutate(W_L_percentage = (Total_W / G_managed)*100) |>
  arrange(desc(W_L_percentage))

# A tibble: 749 x 5
   playerID  G_managed Total_W Total_L W_L_percentage
   <chr>         <int>   <int>   <int>          <dbl>
 1 bensove01         1       1       0            100
 2 burwebi01         1       1       0            100
 3 cohenan01         1       1       0            100
 4 ebeldi99          3       3       0            100
 5 falkbi01          1       1       0            100
 6 hardeme01         3       3       0            100
 7 simmote01         1       1       0            100
 8 steinte01         2       2       0            100
 9 sukefcl01         2       2       0            100
10 tamarjo01         1       1       0            100
# i 739 more rows
…
